BST 260 Final Project
…
mostrecent %>% group_by(OFFENSE_LEVEL) %>% summarize(count=n(), percent=count/nrow(mostrecent))

## # A tibble: 3 x 3
##   OFFENSE_LEVEL  count percent
##   <fct>          <int>   <dbl>
## 1 Felony         23555   0.362
## 2 Misdemeanor    32628   0.502
## 3 Status Offense  8837   0.136

Weve already seen the prevalence of different misdemeanor-level offenses in our tile plot above. However, I was also interested in learning about the different types and frequencies of felony and status offenses. The table below displays the number of referrals by offense level and type. Among felonies, the most common offenses were Assault (4,574 cases), Robbery (3,631 cases), and Burglary (2,984 cases). Among misdemeanor and status offenses, some of the most surprising categories were Annoying Children (204 cases), Joy Riding (125 cases), and Incorrigible (147 cases). Although somewhat humorous, it also concerns me that kids are being criminalized for these behaviors.

mostrecent %>% group_by(OFFENSE_LEVEL, GROUP_OFFENSE_LEVEL) %>% summarize(count=n())

## # A tibble: 50 x 3
## # Groups:   OFFENSE_LEVEL [3]
##    OFFENSE_LEVEL GROUP_OFFENSE_LEVEL        count
##    <fct>         <fct>                      <int>
##  1 Felony        Arson                        232
##  2 Felony        Assault                     4574
##  3 Felony        Burglary                    2984
##  4 Felony        Dangerous Drugs              427
##  5 Felony        Drive Under the Influence     74
##  6 Felony        Forgery/Checks/Access Card    42
##  7 Felony        Hit and Run                   51
##  8 Felony        Homicide                     267
##  9 Felony        Kidnapping                    52
## 10 Felony        Lewd or Lascivious           821
## #  with 40 more rows
…
